<svg xmlns="http://www.w3.org/2000/svg" width="25" height="25" viewBox="0 0 81 84">
    <g>
        <g>
            <path fill="#fff" d="M-.32 12.33c0-6.075 4.925-11 11-11h34.697a11 11 0 0 1 7.758 18.798l-9.57 9.52 37.61 37.61a5 5 0 0 1 0 7.071l-7.07 7.071a5 5 0 0 1-7.072 0L29.387 43.755 18.438 54.648A11 11 0 0 1-.32 46.85z"/>
        </g>
    </g>
</svg>